\contentsline {chapter}{\numberline {1}Setting}{2}
\contentsline {chapter}{\numberline {2}Cygwin}{3}
\contentsline {section}{\numberline {2.1}Link Creation}{3}
\contentsline {section}{\numberline {2.2}Permission Management}{3}
\contentsline {section}{\numberline {2.3}User Management}{4}
\contentsline {chapter}{\numberline {3}Hadoop}{5}
\contentsline {chapter}{\numberline {4}HD Insight}{6}
\contentsline {chapter}{\numberline {5}Redis}{7}
\contentsline {chapter}{\numberline {6}Application}{8}
\contentsline {section}{\numberline {6.1}Naming Conventions}{8}
\contentsline {chapter}{\numberline {7}Deployment}{9}
