\relax 
\@writefile{toc}{\contentsline {chapter}{\numberline {1}Setting}{2}}
\@writefile{lof}{\addvspace {10\p@ }}
\@writefile{lot}{\addvspace {10\p@ }}
\@writefile{toc}{\contentsline {chapter}{\numberline {2}Cygwin}{3}}
\@writefile{lof}{\addvspace {10\p@ }}
\@writefile{lot}{\addvspace {10\p@ }}
\@writefile{toc}{\contentsline {section}{\numberline {2.1}Link Creation}{3}}
\@writefile{toc}{\contentsline {section}{\numberline {2.2}Permission Management}{3}}
\@writefile{toc}{\contentsline {section}{\numberline {2.3}User Management}{4}}
\@writefile{toc}{\contentsline {chapter}{\numberline {3}Hadoop}{5}}
\@writefile{lof}{\addvspace {10\p@ }}
\@writefile{lot}{\addvspace {10\p@ }}
\@writefile{toc}{\contentsline {chapter}{\numberline {4}HD Insight}{6}}
\@writefile{lof}{\addvspace {10\p@ }}
\@writefile{lot}{\addvspace {10\p@ }}
\@writefile{toc}{\contentsline {chapter}{\numberline {5}Redis}{7}}
\@writefile{lof}{\addvspace {10\p@ }}
\@writefile{lot}{\addvspace {10\p@ }}
\@writefile{toc}{\contentsline {chapter}{\numberline {6}Application}{8}}
\@writefile{lof}{\addvspace {10\p@ }}
\@writefile{lot}{\addvspace {10\p@ }}
\@writefile{toc}{\contentsline {section}{\numberline {6.1}Naming Conventions}{8}}
\bibstyle{unsrt}
\bibdata{sample}
\@writefile{toc}{\contentsline {chapter}{\numberline {7}Deployment}{9}}
\@writefile{lof}{\addvspace {10\p@ }}
\@writefile{lot}{\addvspace {10\p@ }}
