\bibcite{hadoop-finance}{\hyperlink {beamerbibhadoop-finance}{1}}
\bibcite{hadoop-morganstanley}{\hyperlink {beamerbibhadoop-morganstanley}{2}}
\bibcite{google-mapreduce}{\hyperlink {beamerbibgoogle-mapreduce}{3}}
\bibcite{google-pregel}{\hyperlink {beamerbibgoogle-pregel}{4}}
\bibcite{hadoop-growth-ma}{\hyperlink {beamerbibhadoop-growth-ma}{5}}
\bibcite{hadoop-growth-tmr}{\hyperlink {beamerbibhadoop-growth-tmr}{6}}
