This is BibTeX, Version 0.99dThe top-level auxiliary file: main.aux
The style file: plain.bst
Database file #1: bibliography/hadoop.bib
Database file #2: bibliography/ecosystem.bib
Warning--entry type for "hbase" isn't style-file defined
--line 1 of file bibliography/ecosystem.bib
Database file #3: bibliography/google.bib
Database file #4: bibliography/svd.bib
Database file #5: bibliography/databases.bib
Database file #6: bibliography/other.bib
Warning--I didn't find a database entry for "tsqr-constf"
Warning--to sort, need author or key in amazonemr
Warning--to sort, need author or key in googlehadoop
Warning--to sort, need author or key in mshdinsight
Warning--to sort, need author or key in hadoop-devel
Warning--to sort, need author or key in hadoop-sponsors
Warning--to sort, need author or key in hadoop-morganstanley
Warning--to sort, need author or key in hadoop-finance
Warning--to sort, need author or key in mahout
Warning--to sort, need author or key in hdinsightsdk
Warning--to sort, need author or key in redis
Warning--to sort, need author or key in hadoop-mpi
Warning--to sort, need author or key in pig
Warning--to sort, need author or key in sqoop
Warning--to sort, need author or key in flume
Warning--to sort, need author or key in zookeeper
Warning--to sort, need author or key in ambari
Warning--to sort, need author or key in drill
Warning--to sort, need author or key in accumulo
Warning--to sort, need author or key in tez
Warning--to sort, need author or key in giraph
Warning--to sort, need author or key in hama
Warning--to sort, need author or key in discoMR
Warning--to sort, need author or key in mincemeatpy
Warning--to sort, need author or key in peregine
Warning--to sort, need author or key in QFS
Warning--to sort, need author or key in cloudera-impala
Warning--to sort, need author or key in stinger
Warning--to sort, need author or key in spark
Warning--to sort, need author or key in storm
Warning--to sort, need author or key in hadoop-facebook-100pb
Warning--to sort, need author or key in nmath
Warning--to sort, need author or key in autocorrelation
Warning--to sort, need author or key in wk-theorem
Warning--to sort, need author or key in mkl
Warning--to sort, need author or key in corr-coeff-wiki
Warning--to sort, need author or key in corr-coeff-wolfram
Warning--to sort, need author or key in numpy
Warning--to sort, need author or key in scipy
Warning--to sort, need author or key in oozie
Warning--empty institution in mpi-1.0
Warning--empty institution in hadoop-graysort13
Warning--empty institution in hadoop-graysort09
Warning--empty institution in hadoop-graysort08
(There were 45 warnings)
