\relax 
\providecommand\HyperFirstAtBeginDocument{\AtBeginDocument}
\HyperFirstAtBeginDocument{\ifx\hyper@anchor\@undefined
\global\let\oldcontentsline\contentsline
\gdef\contentsline#1#2#3#4{\oldcontentsline{#1}{#2}{#3}}
\global\let\oldnewlabel\newlabel
\gdef\newlabel#1#2{\newlabelxx{#1}#2}
\gdef\newlabelxx#1#2#3#4#5#6{\oldnewlabel{#1}{{#2}{#3}}}
\AtEndDocument{\ifx\hyper@anchor\@undefined
\let\contentsline\oldcontentsline
\let\newlabel\oldnewlabel
\fi}
\fi}
\global\let\hyper@last\relax 
\gdef\HyperFirstAtBeginDocument#1{#1}
\providecommand\HyField@AuxAddToFields[1]{}
\bibstyle{plain}
\select@language{english}
\@writefile{toc}{\select@language{english}}
\@writefile{lof}{\select@language{english}}
\@writefile{lot}{\select@language{english}}
\select@language{english}
\@writefile{toc}{\select@language{english}}
\@writefile{lof}{\select@language{english}}
\@writefile{lot}{\select@language{english}}
\select@language{english}
\@writefile{toc}{\select@language{english}}
\@writefile{lof}{\select@language{english}}
\@writefile{lot}{\select@language{english}}
\select@language{english}
\@writefile{toc}{\select@language{english}}
\@writefile{lof}{\select@language{english}}
\@writefile{lot}{\select@language{english}}
\@writefile{toc}{\contentsline {chapter}{Acknowledgements}{v}{section*.2}}
\@writefile{toc}{\contentsline {chapter}{Abstract}{vii}{section*.3}}
\@writefile{toc}{\contentsline {chapter}{Outline of the Thesis}{xi}{section*.5}}
\@writefile{toc}{\contentsline {part}{\numberline {I}Introduction and Theory}{1}{part.1}}
\citation{google-filesystem}
\citation{google-mapreduce}
\citation{hadoop-growth-ma}
\citation{hadoop-growth-tmr}
\citation{amazonemr}
\citation{googlehadoop}
\citation{mshdinsight}
\citation{hadoop-devel}
\citation{hadoop-sponsors}
\citation{hadoop-graysort13}
\citation{hadoop-graysort09}
\citation{hadoop-graysort08}
\citation{hadoop-scicomp-early}
\citation{hadoop-scihadoop}
\citation{hadoop-bioinformatics}
\citation{hadoop-realtime-facebook}
\citation{hadoop-morganstanley}
\citation{hadoop-finance}
\citation{mahout}
\newlabel{part:introAndBackgroundTheory}{{I}{3}{Introduction and Theory\relax }{part.1}{}}
\@writefile{toc}{\contentsline {chapter}{\numberline {1}Introduction}{3}{chapter.1}}
\@writefile{lof}{\addvspace {10\p@ }}
\@writefile{lot}{\addvspace {10\p@ }}
\@writefile{lol}{\addvspace {10\p@ }}
\@writefile{lop}{\addvspace {10\p@ }}
\newlabel{chapter:Introduction}{{1}{3}{Introduction\relax }{chapter.1}{}}
\@writefile{toc}{\contentsline {section}{\numberline {1.1}Big Data and Hadoop}{3}{section.1.1}}
\citation{hdinsightsdk}
\citation{redis}
\@writefile{toc}{\contentsline {section}{\numberline {1.2}Project}{4}{section.1.2}}
\citation{google-filesystem}
\citation{google-mapreduce}
\citation{hadoop-mpi}
\citation{hadoop-growth-ma}
\citation{hadoop-growth-tmr}
\citation{amazonemr}
\citation{googlehadoop}
\citation{mshdinsight}
\citation{hbase}
\citation{pig}
\citation{hive-09}
\citation{sqoop}
\citation{flume}
\@writefile{toc}{\contentsline {chapter}{\numberline {2}State Of The Art}{7}{chapter.2}}
\@writefile{lof}{\addvspace {10\p@ }}
\@writefile{lot}{\addvspace {10\p@ }}
\@writefile{lol}{\addvspace {10\p@ }}
\@writefile{lop}{\addvspace {10\p@ }}
\newlabel{chapter:StateOfTheArt}{{2}{7}{State Of The Art\relax }{chapter.2}{}}
\@writefile{toc}{\contentsline {section}{\numberline {2.1}Big Data}{7}{section.2.1}}
\@writefile{toc}{\contentsline {section}{\numberline {2.2}MapReduce and Hadoop}{7}{section.2.2}}
\citation{google-bigtable}
\citation{mahout}
\citation{zookeeper}
\citation{ambari}
\citation{drill}
\citation{accumulo}
\citation{tez}
\citation{giraph}
\citation{hama}
\citation{google-mapreduce}
\citation{discoMR}
\citation{mincemeatpy}
\citation{peregine}
\citation{QFS}
\citation{microsoft-dryad}
\citation{microsoft-dryadlinq}
\@writefile{toc}{\contentsline {subsection}{\numberline {2.2.1}Related Projects}{8}{subsection.2.2.1}}
\@writefile{toc}{\contentsline {subsection}{\numberline {2.2.2}Alternative Implementations}{8}{subsection.2.2.2}}
\@writefile{toc}{\contentsline {section}{\numberline {2.3}Alternative Paradigms}{8}{section.2.3}}
\citation{haloop}
\citation{google-bigtable}
\citation{dynamo}
\citation{cassandra}
\citation{hbase}
\citation{google-dremel}
\citation{cloudera-impala}
\citation{drill}
\citation{stinger}
\citation{spark}
\citation{storm}
\citation{google-pregel}
\citation{bsp}
\citation{hama}
\citation{giraph}
\citation{google-mapreduce}
\citation{google-filesystem}
\@writefile{toc}{\contentsline {chapter}{\numberline {3}Theory}{11}{chapter.3}}
\@writefile{lof}{\addvspace {10\p@ }}
\@writefile{lot}{\addvspace {10\p@ }}
\@writefile{lol}{\addvspace {10\p@ }}
\@writefile{lop}{\addvspace {10\p@ }}
\newlabel{chapter:Theory}{{3}{11}{Theory\relax }{chapter.3}{}}
\@writefile{toc}{\contentsline {section}{\numberline {3.1}The MapReduce Paradigm}{11}{section.3.1}}
\citation{hadoop-facebook-100pb}
\citation{hadoop-graysort13}
\citation{hadoop-graysort09}
\citation{hadoop-graysort08}
\@writefile{lof}{\contentsline {figure}{\numberline {3.1}{\ignorespaces Logical data flow across the three main phases of MapReduce.\relax }}{12}{figure.caption.14}}
\providecommand*\caption@xref[2]{\@setref\relax\@undefined{#1}}
\newlabel{fig:map-reduce}{{3.1}{12}{Logical data flow across the three main phases of MapReduce.\relax \relax }{figure.caption.14}{}}
\citation{google-mapreduce}
\@writefile{lof}{\contentsline {figure}{\numberline {3.2}{\ignorespaces The combiner acts as a reducer locally on the node after the mapping phase.\relax }}{13}{figure.caption.19}}
\newlabel{fig:map-combine-reduce}{{3.2}{13}{The combiner acts as a reducer locally on the node after the mapping phase.\relax \relax }{figure.caption.19}{}}
\citation{mpi-1.0}
\newlabel{par:speculative-execution}{{3.1}{14}{Speculative Execution\relax }{section*.20}{}}
\@writefile{toc}{\contentsline {section}{\numberline {3.2}Hadoop Implementation}{14}{section.3.2}}
\newlabel{sec:hadoop-implementation}{{3.2}{14}{Hadoop Implementation\relax }{section.3.2}{}}
\citation{google-mapreduce}
\citation{hadoop-definitive-guide}
\citation{hadoop-definitive-guide}
\citation{hadoop-definitive-guide}
\citation{hadoop-definitive-guide}
\@writefile{toc}{\contentsline {subsection}{\numberline {3.2.1}Hadoop 1}{15}{subsection.3.2.1}}
\newlabel{subsec:hadoop-1.0}{{3.2.1}{15}{Hadoop 1\relax }{subsection.3.2.1}{}}
\@writefile{lof}{\contentsline {figure}{\numberline {3.3}{\ignorespaces How Hadoop 1 runs a MapReduce job \cite  {hadoop-definitive-guide}.\relax }}{16}{figure.caption.23}}
\newlabel{fig:mapreduce-running}{{3.3}{16}{How Hadoop 1 runs a MapReduce job \cite {hadoop-definitive-guide}.\relax \relax }{figure.caption.23}{}}
\@writefile{lof}{\contentsline {figure}{\numberline {3.4}{\ignorespaces Shuffle in MapReduce \cite  {hadoop-definitive-guide}.\relax }}{17}{figure.caption.24}}
\newlabel{fig:mapreduce-sorting}{{3.4}{17}{Shuffle in MapReduce \cite {hadoop-definitive-guide}.\relax \relax }{figure.caption.24}{}}
\@writefile{toc}{\contentsline {subsection}{\numberline {3.2.2}Hadoop 2}{17}{subsection.3.2.2}}
\newlabel{subsec:hadoop-2.0}{{3.2.2}{17}{Hadoop 2\relax }{subsection.3.2.2}{}}
\@writefile{lof}{\contentsline {figure}{\numberline {3.5}{\ignorespaces HDFS Architecture.\relax }}{18}{figure.caption.26}}
\newlabel{fig:hdfs-architecture}{{3.5}{18}{HDFS Architecture.\relax \relax }{figure.caption.26}{}}
\@writefile{lof}{\contentsline {figure}{\numberline {3.6}{\ignorespaces YARN Architecture.\relax }}{19}{figure.caption.28}}
\newlabel{fig:yarn-architecture}{{3.6}{19}{YARN Architecture.\relax \relax }{figure.caption.28}{}}
\@writefile{toc}{\contentsline {subsection}{\numberline {3.2.3}Additional Language Support}{19}{subsection.3.2.3}}
\newlabel{subsec:additionalFeatures}{{3.2.3}{19}{Additional Language Support\relax }{subsection.3.2.3}{}}
\citation{hadoop-definitive-guide}
\citation{hadoop-definitive-guide}
\@writefile{lof}{\contentsline {figure}{\numberline {3.7}{\ignorespaces Streaming and Pipes running on top of the Task Tracker \cite  {hadoop-definitive-guide}.\relax }}{21}{figure.caption.33}}
\newlabel{fig:hadoop-streaming-pipes}{{3.7}{21}{Streaming and Pipes running on top of the Task Tracker \cite {hadoop-definitive-guide}.\relax \relax }{figure.caption.33}{}}
\@writefile{toc}{\contentsline {part}{\numberline {II}The Application}{23}{part.2}}
\citation{mshdinsight}
\newlabel{part:secondP}{{II}{25}{The Application\relax }{part.2}{}}
\@writefile{toc}{\contentsline {chapter}{\numberline {4}Overview}{25}{chapter.4}}
\@writefile{lof}{\addvspace {10\p@ }}
\@writefile{lot}{\addvspace {10\p@ }}
\@writefile{lol}{\addvspace {10\p@ }}
\@writefile{lop}{\addvspace {10\p@ }}
\newlabel{chapter:Overview}{{4}{25}{Overview\relax }{chapter.4}{}}
\@writefile{toc}{\contentsline {section}{\numberline {4.1}Requirements}{25}{section.4.1}}
\@writefile{toc}{\contentsline {section}{\numberline {4.2}Technologies Adopted}{25}{section.4.2}}
\citation{redis}
\citation{nosql-perfomance-comparison}
\citation{sqoop}
\@writefile{toc}{\contentsline {chapter}{\numberline {5}Implementation}{27}{chapter.5}}
\@writefile{lof}{\addvspace {10\p@ }}
\@writefile{lot}{\addvspace {10\p@ }}
\@writefile{lol}{\addvspace {10\p@ }}
\@writefile{lop}{\addvspace {10\p@ }}
\newlabel{chapter:Implementation}{{5}{27}{Implementation\relax }{chapter.5}{}}
\@writefile{toc}{\contentsline {section}{\numberline {5.1}Architecture}{27}{section.5.1}}
\@writefile{toc}{\contentsline {section}{\numberline {5.2}Configuration}{27}{section.5.2}}
\@writefile{lof}{\contentsline {figure}{\numberline {5.1}{\ignorespaces Architecture of the application.\relax }}{28}{figure.caption.38}}
\newlabel{fig:achitecture}{{5.1}{28}{Architecture of the application.\relax \relax }{figure.caption.38}{}}
\@writefile{lop}{\contentsline {snippet}{\numberline {5.1}{\ignorespaces XML configuration example.\relax }}{29}{snippet.5.1}}
\newlabel{snippet:xml-config}{{5.1}{29}{XML configuration example.\relax \relax }{snippet.5.1}{}}
\@writefile{toc}{\contentsline {section}{\numberline {5.3}Mathematical Toolbox}{29}{section.5.3}}
\newlabel{sec:math-toolbox}{{5.3}{29}{Mathematical Toolbox\relax }{section.5.3}{}}
\newlabel{subsec:stat-func}{{5.3}{29}{Statistical Functions\relax }{section*.39}{}}
\@writefile{lop}{\contentsline {snippet}{\numberline {5.2}{\ignorespaces XML configuration example.\relax }}{30}{snippet.5.2}}
\newlabel{snippet:stat-config}{{5.2}{30}{XML configuration example.\relax \relax }{snippet.5.2}{}}
\citation{design-patterns-gamma}
\citation{design-patterns-McLaughlin}
\@writefile{lof}{\contentsline {figure}{\numberline {5.2}{\ignorespaces Outliers Class Diagram.\relax }}{31}{figure.caption.42}}
\newlabel{fig:outliers-factory}{{5.2}{31}{Outliers Class Diagram.\relax \relax }{figure.caption.42}{}}
\citation{Data-Minin-Knowledge-Discovery}
\citation{hoaglin2000understanding}
\citation{Bishop_ML}
\newlabel{subsubsec:Tukey}{{5.3}{32}{Statistically Based Methods\relax }{section*.43}{}}
\newlabel{eq:lr}{{5.2}{33}{Linear Regression\relax }{equation.5.3.2}{}}
\newlabel{eq:basis-func}{{5.3}{33}{Linear Regression\relax }{equation.5.3.3}{}}
\newlabel{eq:lr-leastsquares}{{5.4}{33}{Linear Regression\relax }{equation.5.3.4}{}}
\citation{nmath}
\citation{autocorrelation}
\citation{wk-theorem}
\newlabel{eq:autocorr}{{5.5}{35}{Autocorrelation\relax }{equation.5.3.5}{}}
\citation{mkl}
\citation{corr-coeff-wiki}
\citation{corr-coeff-wolfram}
\newlabel{subsec:corrMatrImpl}{{5.3}{36}{Correlation Matrix\relax }{section*.48}{}}
\newlabel{eq:correlation}{{5.14}{36}{Correlation Matrix\relax }{equation.5.3.14}{}}
\@writefile{lof}{\contentsline {figure}{\numberline {5.3}{\ignorespaces Distribution of the computation of the correlation matrix.\relax }}{37}{figure.caption.49}}
\newlabel{fig:corr-0}{{5.3}{37}{Distribution of the computation of the correlation matrix.\relax \relax }{figure.caption.49}{}}
\@writefile{lof}{\contentsline {figure}{\numberline {5.4}{\ignorespaces First MapReduce step for the computation of the correlation matrix \ref  {fig:corr-0}.\relax }}{38}{figure.caption.50}}
\newlabel{fig:corr-1}{{5.4}{38}{First MapReduce step for the computation of the correlation matrix \ref {fig:corr-0}.\relax \relax }{figure.caption.50}{}}
\@writefile{lof}{\contentsline {figure}{\numberline {5.5}{\ignorespaces Second MapReduce step for the computation of the correlation matrix \ref  {fig:corr-0}.\relax }}{39}{figure.caption.51}}
\newlabel{fig:corr-2}{{5.5}{39}{Second MapReduce step for the computation of the correlation matrix \ref {fig:corr-0}.\relax \relax }{figure.caption.51}{}}
\newlabel{eq:crv}{{5.16}{39}{Correlated Random Variables\relax }{equation.5.3.16}{}}
\citation{parallel-computing-statistics}
\citation{tsqr-bens}
\citation{tsqr-constf}
\newlabel{eq:crv-scaled}{{5.18}{40}{Correlated Random Variables\relax }{equation.5.3.18}{}}
\citation{nmath}
\citation{nmath}
\citation{mkl}
\citation{design-patterns-gamma}
\@writefile{toc}{\contentsline {section}{\numberline {5.4}Optimizations}{41}{section.5.4}}
\@writefile{toc}{\contentsline {chapter}{\numberline {6}Infrastructure}{43}{chapter.6}}
\@writefile{lof}{\addvspace {10\p@ }}
\@writefile{lot}{\addvspace {10\p@ }}
\@writefile{lol}{\addvspace {10\p@ }}
\@writefile{lop}{\addvspace {10\p@ }}
\newlabel{chapter:Deployment}{{6}{43}{Infrastructure\relax }{chapter.6}{}}
\@writefile{toc}{\contentsline {section}{\numberline {6.1}Hadoop}{43}{section.6.1}}
\newlabel{sec:hadoop-deployment}{{6.1}{43}{Hadoop\relax }{section.6.1}{}}
\citation{hadoop-definitive-guide}
\@writefile{toc}{\contentsline {section}{\numberline {6.2}Redis}{44}{section.6.2}}
\@writefile{toc}{\contentsline {section}{\numberline {6.3}Configuration}{44}{section.6.3}}
\newlabel{RF1}{45}
\@writefile{lot}{\contentsline {table}{\numberline {6.1}{\ignorespaces Cluster configuration\relax }}{45}{table.caption.53}}
\newlabel{table:cluster-conf}{{6.1}{45}{Cluster configuration\relax \relax }{table.caption.53}{}}
\@writefile{toc}{\contentsline {chapter}{\numberline {7}Profiling Results}{47}{chapter.7}}
\@writefile{lof}{\addvspace {10\p@ }}
\@writefile{lot}{\addvspace {10\p@ }}
\@writefile{lol}{\addvspace {10\p@ }}
\@writefile{lop}{\addvspace {10\p@ }}
\newlabel{chapter:Profiling}{{7}{47}{Profiling Results\relax }{chapter.7}{}}
\@writefile{toc}{\contentsline {section}{\numberline {7.1}Hadoop}{47}{section.7.1}}
\newlabel{sec:profiling-hadoop}{{7.1}{47}{Hadoop\relax }{section.7.1}{}}
\@writefile{toc}{\contentsline {subsection}{\numberline {7.1.1}Block Size}{48}{subsection.7.1.1}}
\@writefile{toc}{\contentsline {subsection}{\numberline {7.1.2}Replication Factor}{49}{subsection.7.1.2}}
\@writefile{toc}{\contentsline {subsection}{\numberline {7.1.3}Number Of Mappers}{49}{subsection.7.1.3}}
\@writefile{toc}{\contentsline {subsection}{\numberline {7.1.4}Number Of Reducers}{50}{subsection.7.1.4}}
\citation{numpy}
\citation{scipy}
\@writefile{toc}{\contentsline {subsection}{\numberline {7.1.5}Optimal Configuration}{51}{subsection.7.1.5}}
\@writefile{toc}{\contentsline {section}{\numberline {7.2}Comparison With Single Core Implementation}{51}{section.7.2}}
\@writefile{lot}{\contentsline {table}{\numberline {7.1}{\ignorespaces Heat map of running times of Tukey detection. The first row represents the number of suggested mappers. The first column the number of used reducers.\relax }}{52}{table.caption.54}}
\newlabel{table:heatmap}{{7.1}{52}{Heat map of running times of Tukey detection. The first row represents the number of suggested mappers. The first column the number of used reducers.\relax \relax }{table.caption.54}{}}
\citation{nmath}
\@writefile{toc}{\contentsline {section}{\numberline {7.3}Comparison With Multiple Core Implementation}{54}{section.7.3}}
\@writefile{toc}{\contentsline {section}{\numberline {7.4}Additional Experiments}{55}{section.7.4}}
\@writefile{toc}{\contentsline {part}{\numberline {III}Outlook}{57}{part.3}}
\newlabel{part:thirdP}{{III}{59}{Outlook\relax }{part.3}{}}
\@writefile{toc}{\contentsline {chapter}{\numberline {8}Conclusion}{59}{chapter.8}}
\@writefile{lof}{\addvspace {10\p@ }}
\@writefile{lot}{\addvspace {10\p@ }}
\@writefile{lol}{\addvspace {10\p@ }}
\@writefile{lop}{\addvspace {10\p@ }}
\newlabel{chapter:Conclusion}{{8}{59}{Conclusion\relax }{chapter.8}{}}
\citation{sqoop}
\citation{flume}
\citation{oozie}
\citation{hbase}
\citation{giraph}
\citation{hama}
\citation{spark}
\citation{storm}
\@writefile{toc}{\contentsline {chapter}{\numberline {9}Future Work}{61}{chapter.9}}
\@writefile{lof}{\addvspace {10\p@ }}
\@writefile{lot}{\addvspace {10\p@ }}
\@writefile{lol}{\addvspace {10\p@ }}
\@writefile{lop}{\addvspace {10\p@ }}
\newlabel{chapter:FutureWork}{{9}{61}{Future Work\relax }{chapter.9}{}}
\bibdata{bibliography/hadoop,bibliography/ecosystem,bibliography/google,bibliography/svd,bibliography/databases,bibliography/other}
\bibcite{accumulo}{1}
\bibcite{amazonemr}{2}
\bibcite{mahout}{3}
\bibcite{oozie}{4}
\bibcite{hadoop-sponsors}{5}
\bibcite{zookeeper}{6}
\bibcite{tez}{7}
\bibcite{autocorrelation}{8}
\bibcite{spark}{9}
\bibcite{corr-coeff-wiki}{10}
\bibcite{corr-coeff-wolfram}{11}
\bibcite{cloudera-impala}{12}
\bibcite{storm}{13}
\bibcite{flume}{14}
\bibcite{peregine}{15}
\bibcite{drill}{16}
\bibcite{googlehadoop}{17}
\@writefile{toc}{\contentsline {chapter}{Bibliography}{63}{chapter*.60}}
\bibcite{mshdinsight}{18}
\bibcite{QFS}{19}
\bibcite{hadoop-finance}{20}
\bibcite{mkl}{21}
\bibcite{giraph}{22}
\bibcite{mincemeatpy}{23}
\bibcite{discoMR}{24}
\bibcite{hdinsightsdk}{25}
\bibcite{hadoop-morganstanley}{26}
\bibcite{hadoop-mpi}{27}
\bibcite{hadoop-facebook-100pb}{28}
\bibcite{nmath}{29}
\bibcite{numpy}{30}
\bibcite{pig}{31}
\bibcite{hama}{32}
\bibcite{redis}{33}
\bibcite{scipy}{34}
\bibcite{ambari}{35}
\bibcite{stinger}{36}
\bibcite{sqoop}{37}
\bibcite{hadoop-devel}{38}
\bibcite{wk-theorem}{39}
\bibcite{tsqr-bens}{40}
\bibcite{Bishop_ML}{41}
\bibcite{hadoop-realtime-facebook}{42}
\bibcite{haloop}{43}
\bibcite{hadoop-scihadoop}{44}
\bibcite{google-bigtable}{45}
\bibcite{google-mapreduce}{46}
\bibcite{dynamo}{47}
\bibcite{mpi-1.0}{48}
\bibcite{hbase}{49}
\bibcite{design-patterns-gamma}{50}
\bibcite{google-filesystem}{51}
\bibcite{hadoop-graysort13}{52}
\bibcite{hoaglin2000understanding}{53}
\bibcite{microsoft-dryad}{54}
\bibcite{hadoop-scicomp-early}{55}
\bibcite{parallel-computing-statistics}{56}
\bibcite{cassandra}{57}
\bibcite{Data-Minin-Knowledge-Discovery}{58}
\bibcite{google-pregel}{59}
\bibcite{hadoop-growth-ma}{60}
\bibcite{design-patterns-McLaughlin}{61}
\bibcite{google-dremel}{62}
\bibcite{hadoop-graysort09}{63}
\bibcite{hadoop-graysort08}{64}
\bibcite{nosql-perfomance-comparison}{65}
\bibcite{hadoop-bioinformatics}{66}
\bibcite{hive-09}{67}
\bibcite{hadoop-growth-tmr}{68}
\bibcite{bsp}{69}
\bibcite{hadoop-definitive-guide}{70}
\bibcite{microsoft-dryadlinq}{71}
\global\@altsecnumformattrue
