\beamer@endinputifotherversion {3.27pt}
\beamer@sectionintoc {1}{Introduction and Theory}{3}{0}{1}
\beamer@subsectionintoc {1}{1}{Introduction}{4}{0}{1}
\beamer@subsectionintoc {1}{2}{State Of The Art}{6}{0}{1}
\beamer@subsectionintoc {1}{3}{Theory}{7}{0}{1}
\beamer@sectionintoc {2}{The Application}{9}{0}{2}
\beamer@subsectionintoc {2}{1}{Infrastructure}{10}{0}{2}
\beamer@subsectionintoc {2}{2}{Implementation}{13}{0}{2}
\beamer@subsectionintoc {2}{3}{Profiling Results}{20}{0}{2}
\beamer@sectionintoc {3}{Outlook}{28}{0}{3}
\beamer@subsectionintoc {3}{1}{Conclusion}{29}{0}{3}
\beamer@subsectionintoc {3}{2}{Future Work}{30}{0}{3}
