\relax 
\providecommand\HyperFirstAtBeginDocument{\AtBeginDocument}
\HyperFirstAtBeginDocument{\ifx\hyper@anchor\@undefined
\global\let\oldcontentsline\contentsline
\gdef\contentsline#1#2#3#4{\oldcontentsline{#1}{#2}{#3}}
\global\let\oldnewlabel\newlabel
\gdef\newlabel#1#2{\newlabelxx{#1}#2}
\gdef\newlabelxx#1#2#3#4#5#6{\oldnewlabel{#1}{{#2}{#3}}}
\AtEndDocument{\ifx\hyper@anchor\@undefined
\let\contentsline\oldcontentsline
\let\newlabel\oldnewlabel
\fi}
\fi}
\global\let\hyper@last\relax 
\gdef\HyperFirstAtBeginDocument#1{#1}
\providecommand\HyField@AuxAddToFields[1]{}
\bibstyle{plain}
\@writefile{toc}{\beamer@endinputifotherversion {3.27pt}}
\@writefile{nav}{\beamer@endinputifotherversion {3.27pt}}
\@writefile{nav}{\headcommand {\slideentry {0}{0}{1}{1/1}{}{0}}}
\@writefile{nav}{\headcommand {\beamer@framepages {1}{1}}}
\@writefile{nav}{\headcommand {\slideentry {0}{0}{2}{2/2}{}{0}}}
\@writefile{nav}{\headcommand {\beamer@framepages {2}{2}}}
\@writefile{toc}{\beamer@sectionintoc {1}{Introduction and Theory}{3}{0}{1}}
\@writefile{nav}{\headcommand {\sectionentry {1}{Introduction and Theory}{3}{Introduction and Theory}{0}}}
\@writefile{nav}{\headcommand {\beamer@sectionpages {1}{2}}}
\@writefile{nav}{\headcommand {\beamer@subsectionpages {1}{2}}}
\@writefile{nav}{\headcommand {\slideentry {1}{0}{3}{3/3}{}{0}}}
\@writefile{nav}{\headcommand {\beamer@framepages {3}{3}}}
\citation{google-mapreduce}
\@writefile{toc}{\beamer@subsectionintoc {1}{1}{Introduction}{4}{0}{1}}
\@writefile{nav}{\headcommand {\beamer@subsectionentry {0}{1}{1}{4}{Introduction}}\headcommand {\beamer@subsectionpages {3}{3}}}
\@writefile{nav}{\headcommand {\slideentry {1}{1}{1}{4/4}{Introduction}{0}}}
\@writefile{nav}{\headcommand {\beamer@framepages {4}{4}}}
\citation{hadoop-growth-ma}
\citation{hadoop-growth-tmr}
\citation{hadoop-finance}
\citation{hadoop-morganstanley}
\@writefile{nav}{\headcommand {\slideentry {1}{1}{2}{5/5}{Introduction}{0}}}
\@writefile{nav}{\headcommand {\beamer@framepages {5}{5}}}
\citation{google-pregel}
\@writefile{toc}{\beamer@subsectionintoc {1}{2}{State Of The Art}{6}{0}{1}}
\@writefile{nav}{\headcommand {\beamer@subsectionentry {0}{1}{2}{6}{State Of The Art}}\headcommand {\beamer@subsectionpages {4}{5}}}
\@writefile{nav}{\headcommand {\slideentry {1}{2}{1}{6/6}{State Of The Art}{0}}}
\@writefile{nav}{\headcommand {\beamer@framepages {6}{6}}}
\@writefile{toc}{\beamer@subsectionintoc {1}{3}{Theory}{7}{0}{1}}
\@writefile{nav}{\headcommand {\beamer@subsectionentry {0}{1}{3}{7}{Theory}}\headcommand {\beamer@subsectionpages {6}{6}}}
\@writefile{nav}{\headcommand {\slideentry {1}{3}{1}{7/7}{Theory}{0}}}
\@writefile{nav}{\headcommand {\beamer@framepages {7}{7}}}
\newlabel{fig:map-combine-reduce}{{1}{8}{Theory\relax }{Doc-Start}{}}
\@writefile{snm}{\beamer@slide {fig:map-combine-reduce}{7}}
\@writefile{nav}{\headcommand {\slideentry {1}{3}{1}{7/8}{Theory}{0}}}
\@writefile{nav}{\headcommand {\beamer@framepages {7}{8}}}
\@writefile{toc}{\beamer@sectionintoc {2}{The Application}{9}{0}{2}}
\@writefile{nav}{\headcommand {\sectionentry {2}{The Application}{9}{The Application}{0}}}
\@writefile{nav}{\headcommand {\beamer@sectionpages {3}{8}}}
\@writefile{nav}{\headcommand {\beamer@subsectionpages {7}{8}}}
\@writefile{nav}{\headcommand {\slideentry {2}{0}{2}{9/9}{}{0}}}
\@writefile{nav}{\headcommand {\beamer@framepages {9}{9}}}
\@writefile{toc}{\beamer@subsectionintoc {2}{1}{Infrastructure}{10}{0}{2}}
\@writefile{nav}{\headcommand {\beamer@subsectionentry {0}{2}{1}{10}{Infrastructure}}\headcommand {\beamer@subsectionpages {9}{9}}}
\@writefile{nav}{\headcommand {\slideentry {2}{1}{1}{10/10}{Infrastructure}{0}}}
\@writefile{nav}{\headcommand {\beamer@framepages {10}{10}}}
\@writefile{nav}{\headcommand {\slideentry {2}{1}{1}{10/11}{Infrastructure}{0}}}
\@writefile{nav}{\headcommand {\beamer@framepages {10}{11}}}
\@writefile{nav}{\headcommand {\slideentry {2}{1}{1}{10/12}{Infrastructure}{0}}}
\@writefile{nav}{\headcommand {\beamer@framepages {10}{12}}}
\@writefile{toc}{\beamer@subsectionintoc {2}{2}{Implementation}{13}{0}{2}}
\@writefile{nav}{\headcommand {\beamer@subsectionentry {0}{2}{2}{13}{Implementation}}\headcommand {\beamer@subsectionpages {10}{12}}}
\@writefile{nav}{\headcommand {\slideentry {2}{2}{1}{13/13}{Implementation}{0}}}
\@writefile{nav}{\headcommand {\beamer@framepages {13}{13}}}
\@writefile{nav}{\headcommand {\slideentry {2}{2}{2}{14/14}{Implementation}{0}}}
\@writefile{nav}{\headcommand {\beamer@framepages {14}{14}}}
\@writefile{nav}{\headcommand {\slideentry {2}{2}{3}{15/15}{Implementation}{0}}}
\@writefile{nav}{\headcommand {\beamer@framepages {15}{15}}}
\@writefile{nav}{\headcommand {\slideentry {2}{2}{3}{15/16}{Implementation}{0}}}
\@writefile{nav}{\headcommand {\beamer@framepages {15}{16}}}
\@writefile{nav}{\headcommand {\slideentry {2}{2}{3}{15/17}{Implementation}{0}}}
\@writefile{nav}{\headcommand {\beamer@framepages {15}{17}}}
\@writefile{nav}{\headcommand {\slideentry {2}{2}{3}{15/18}{Implementation}{0}}}
\@writefile{nav}{\headcommand {\beamer@framepages {15}{18}}}
\@writefile{nav}{\headcommand {\slideentry {2}{2}{3}{15/19}{Implementation}{0}}}
\@writefile{nav}{\headcommand {\beamer@framepages {15}{19}}}
\@writefile{toc}{\beamer@subsectionintoc {2}{3}{Profiling Results}{20}{0}{2}}
\@writefile{nav}{\headcommand {\beamer@subsectionentry {0}{2}{3}{20}{Profiling Results}}\headcommand {\beamer@subsectionpages {13}{19}}}
\@writefile{nav}{\headcommand {\slideentry {2}{3}{1}{20/20}{Profiling Results}{0}}}
\@writefile{nav}{\headcommand {\beamer@framepages {20}{20}}}
\@writefile{nav}{\headcommand {\slideentry {2}{3}{1}{20/21}{Profiling Results}{0}}}
\@writefile{nav}{\headcommand {\beamer@framepages {20}{21}}}
\@writefile{nav}{\headcommand {\slideentry {2}{3}{1}{20/22}{Profiling Results}{0}}}
\@writefile{nav}{\headcommand {\beamer@framepages {20}{22}}}
\@writefile{nav}{\headcommand {\slideentry {2}{3}{1}{20/23}{Profiling Results}{0}}}
\@writefile{nav}{\headcommand {\beamer@framepages {20}{23}}}
\@writefile{nav}{\headcommand {\slideentry {2}{3}{1}{20/24}{Profiling Results}{0}}}
\@writefile{nav}{\headcommand {\beamer@framepages {20}{24}}}
\newlabel{table:heatmap}{{20}{25}{Profiling Results\relax }{Doc-Start}{}}
\@writefile{snm}{\beamer@slide {table:heatmap}{20}}
\@writefile{nav}{\headcommand {\slideentry {2}{3}{1}{20/25}{Profiling Results}{0}}}
\@writefile{nav}{\headcommand {\beamer@framepages {20}{25}}}
\@writefile{nav}{\headcommand {\slideentry {2}{3}{1}{20/26}{Profiling Results}{0}}}
\@writefile{nav}{\headcommand {\beamer@framepages {20}{26}}}
\@writefile{nav}{\headcommand {\slideentry {2}{3}{1}{20/27}{Profiling Results}{0}}}
\@writefile{nav}{\headcommand {\beamer@framepages {20}{27}}}
\@writefile{toc}{\beamer@sectionintoc {3}{Outlook}{28}{0}{3}}
\@writefile{nav}{\headcommand {\sectionentry {3}{Outlook}{28}{Outlook}{0}}}
\@writefile{nav}{\headcommand {\beamer@sectionpages {9}{27}}}
\@writefile{nav}{\headcommand {\beamer@subsectionpages {20}{27}}}
\@writefile{nav}{\headcommand {\slideentry {3}{0}{2}{28/28}{}{0}}}
\@writefile{nav}{\headcommand {\beamer@framepages {28}{28}}}
\@writefile{toc}{\beamer@subsectionintoc {3}{1}{Conclusion}{29}{0}{3}}
\@writefile{nav}{\headcommand {\beamer@subsectionentry {0}{3}{1}{29}{Conclusion}}\headcommand {\beamer@subsectionpages {28}{28}}}
\@writefile{nav}{\headcommand {\slideentry {3}{1}{1}{29/29}{Conclusion}{0}}}
\@writefile{nav}{\headcommand {\beamer@framepages {29}{29}}}
\@writefile{toc}{\beamer@subsectionintoc {3}{2}{Future Work}{30}{0}{3}}
\@writefile{nav}{\headcommand {\beamer@subsectionentry {0}{3}{2}{30}{Future Work}}\headcommand {\beamer@subsectionpages {29}{29}}}
\@writefile{nav}{\headcommand {\slideentry {3}{2}{1}{30/30}{Future Work}{0}}}
\@writefile{nav}{\headcommand {\beamer@framepages {30}{30}}}
\@writefile{nav}{\headcommand {\partentry {\translate  {Appendix}}{1}}}
\@writefile{nav}{\headcommand {\beamer@partpages {1}{30}}}
\@writefile{nav}{\headcommand {\beamer@sectionpages {28}{30}}}
\@writefile{nav}{\headcommand {\beamer@subsectionpages {30}{30}}}
\@writefile{nav}{\headcommand {\beamer@appendixpages {31}}}
\@writefile{nav}{\headcommand {\sectionentry {4}{Appendix}{31}{Appendix}{1}}}
\@writefile{nav}{\headcommand {\beamer@sectionpages {31}{30}}}
\@writefile{nav}{\headcommand {\beamer@subsectionpages {31}{30}}}
\@writefile{nav}{\headcommand {\slideentry {4}{0}{2}{31/31}{}{1}}}
\@writefile{nav}{\headcommand {\beamer@framepages {31}{31}}}
\@input{bu.aux}
\bibdata{bibliography/hadoop,bibliography/ecosystem,bibliography/google,bibliography/svd,bibliography/databases,bibliography/other}
\@writefile{nav}{\headcommand {\beamer@subsectionentry {1}{4}{1}{32}{Bibliography}}\headcommand {\beamer@subsectionpages {31}{31}}}
\@writefile{nav}{\headcommand {\slideentry {4}{1}{1}{32/32}{Bibliography}{1}}}
\@writefile{nav}{\headcommand {\beamer@framepages {32}{32}}}
\@writefile{nav}{\headcommand {\slideentry {4}{1}{1}{32/33}{Bibliography}{1}}}
\@writefile{nav}{\headcommand {\beamer@framepages {32}{33}}}
\@writefile{nav}{\headcommand {\beamer@partpages {31}{33}}}
\@writefile{nav}{\headcommand {\beamer@subsectionpages {32}{33}}}
\@writefile{nav}{\headcommand {\beamer@sectionpages {31}{33}}}
\@writefile{nav}{\headcommand {\beamer@documentpages {33}}}
\@writefile{nav}{\headcommand {\def \inserttotalframenumber {33}}}
